# data_1 : u=cos(x) ; y=sin(y)
x    : ndim: 2	shape: (32, 32)	total: 1024
y    : ndim: 2	shape: (32, 32)	total: 1024
u    : ndim: 2	shape: (32, 32)	total: 1024
v    : ndim: 2	shape: (32, 32)	total: 1024