@startuml
[Function : FLD_02_v] as FLD_02_v
[Function : FLD_02_h] as FLD_02_h
package "Géom : Support" {
    [ScatteredSupport : FLD_02_support] as geom_FLD_02
    [FloatValue : FLD_support_x] as FLD_support_x
    [FloatValue : FLD_support_y] as FLD_support_y
    [ListFloatData : FLD_02_support_y] as data_FLD_support_y
    [ListFloatData : FLD_02_support_x] as data_FLD_support_x
    database "40 valeurs" as db_supp_x
    database "40 valeurs" as db_supp_y

}
package "Phy : VectorFunction" {
    [FloatValue : FLD_02_vecteur] as phy_FLD_02_vecteur
    [ArrayFloatData : FLD_02_vecteur] as data_FLD_02_vecteur
    database "80 valeurs" as db_vecteur
}
package "Phy : HeightFunction" {
    [FloatValue : FLD_02_coloration] as phy_FLD_02_c
    [ListFloatData : FLD_02_coloration] as data_FLD_02_c
    database "40 valeurs" as db_height
}
[vectorField] --> [FLD_02_v] : vectorFunction
[vectorField] --> [FLD_02_h] : heightFunction


[FLD_02_h] --> [phy_FLD_02_c] : physical
[FLD_02_h] --> [geom_FLD_02] : geometrical

[FLD_02_v] --> [phy_FLD_02_vecteur] : physical
[FLD_02_v] --> [geom_FLD_02] : geometrical

[geom_FLD_02] --> [FLD_support_x] : coord 1
[geom_FLD_02] --> [FLD_support_y] : coord 2

[phy_FLD_02_c] --> [data_FLD_02_c] : data
[data_FLD_02_c] --> [db_height] : data.values

[FLD_support_x] --> [data_FLD_support_x] : data
[data_FLD_support_x] --> db_supp_x : data.values
[FLD_support_y] --> [data_FLD_support_y] : data
[data_FLD_support_y] --> db_supp_y : data.values

[phy_FLD_02_vecteur] --> [data_FLD_02_vecteur] : data
[data_FLD_02_vecteur] --> [db_vecteur] : data.values






@enduml